<svg width="24" height="24" xmlns="http://www.w3.org/2000/svg">

 <g>
  <title>background</title>
  <rect fill="none" id="canvas_background" height="402" width="582" y="-1" x="-1"/>
 </g>
 <g>
  <title>Layer 1</title>
  <rect rx="1" id="svg_2" height="19.806731" width="21.194159" y="1.947526" x="1.36704" stroke-width="null" stroke="#000000" fill="#7f0000"/>
  <path fill="#ffffff" id="svg_1" d="m11.190613,8.827753l3.144118,0l0.845879,-3.217071a0.797999,0.758743 0 1 1 1.548118,0.364196l-0.750118,2.852875l2.370056,0a0.797999,0.758743 0 0 1 0,1.517487l-2.769054,0l-0.798,3.034972l1.971056,0a0.797999,0.758743 0 1 1 0,1.517487l-2.370056,0l-0.845879,3.224658a0.797999,0.758743 0 1 1 -1.54812,-0.371786l0.75012,-2.852872l-3.144118,0l-0.84588,3.224658a0.797999,0.758743 0 1 1 -1.548119,-0.371786l0.750119,-2.852872l-2.370059,0a0.797999,0.758743 0 0 1 0,-1.517487l2.769058,0l0.798,-3.034972l-1.971059,0a0.797999,0.758743 0 0 1 0,-1.517487l2.370059,0l0.84588,-3.217071a0.797999,0.758743 0 1 1 1.54812,0.364196l-0.75012,2.852875zm-0.398999,1.517487l-0.797999,3.034972l3.144118,0l0.797999,-3.034972l-3.144118,0z" class="heroicon-ui"/>
 </g>
</svg>