<svg width="64" height="64" xmlns="http://www.w3.org/2000/svg">

 <g>
  <title>background</title>
  <rect fill="none" id="canvas_background" height="402" width="582" y="-1" x="-1"/>
 </g>
 <g>
  <g id="svg_33">
   <title>Layer 1</title>
   <path opacity="0.2" id="svg_4" fill="#231F20" d="m32.111969,41.968735c-2.53311,2.414455 -9.909416,19.458366 -9.909416,19.458366c-1.082594,1.874451 0.537228,3.235298 4.22131,1.452389l13.23698,-6.881802c7.132103,-3.778404 8.510986,-4.765278 8.416573,-12.457069l-1.32679,-9.082123c-0.454208,-3.111158 -2.897781,-3.682182 -5.430893,-1.267738l-9.207764,8.777977z"/>
   <path opacity="0.2" id="svg_6" fill="#231F20" d="m23.933079,34.172993c-2.533112,2.414448 -20.41467,9.445206 -20.41467,9.445206c-1.96658,1.031887 -3.394305,-0.512054 -1.523775,-4.023563l7.220021,-12.616892c3.964093,-6.798012 4.999475,-8.112307 13.069296,-8.022306l9.528475,1.264639c3.264067,0.432926 3.863157,2.762028 1.330046,5.176481l-9.209393,8.776436z"/>
   <path id="svg_8" fill="#C75C5C" d="m32.111969,38.865337c-2.53311,2.414444 -9.909416,19.458351 -9.909416,19.458351c-1.082594,1.874454 0.537228,3.235302 4.22131,1.452396l13.23698,-6.881805c7.132103,-3.778397 8.510986,-4.765278 8.416573,-12.457066l-1.32679,-9.082117c-0.454208,-3.111164 -2.897781,-3.682194 -5.430893,-1.26774l-9.207764,8.777981z"/>
   <path id="svg_10" fill="#C75C5C" d="m23.933079,31.069584c-2.533112,2.414448 -20.41467,9.44521 -20.41467,9.44521c-1.96658,1.031879 -3.394305,-0.512058 -1.523775,-4.023563l7.220021,-12.616892c3.964093,-6.798012 4.999475,-8.112307 13.069296,-8.022307l9.528475,1.26464c3.264067,0.432924 3.863157,2.762028 1.330046,5.176477l-9.209393,8.776436z"/>
   <path opacity="0.2" id="svg_12" fill="#231F20" d="m14.450188,41.756153c8.260286,-7.873333 15.200298,-5.471298 15.200298,-5.471298s2.521717,6.61491 -5.7402,14.488247s-21.63727,13.592918 -22.679167,12.599838c-1.009338,-0.963615 4.957152,-13.743443 13.219069,-21.616787z"/>
   <path id="svg_14" fill="#E0995E" d="m14.450188,38.652748c8.260286,-7.873333 15.200298,-5.471298 15.200298,-5.471298s2.521717,6.61491 -5.7402,14.488251s-21.63727,13.592922 -22.679167,12.599823c-1.009338,-0.963615 4.957152,-13.743431 13.219069,-21.616776z"/>
   <path id="svg_16" fill="#F5CF87" d="m21.356012,32.068878c8.260286,-7.873337 15.2003,-5.471304 15.2003,-5.471304s2.521717,6.614912 -5.740206,14.488245s-21.637267,13.592926 -22.679165,12.599831c-1.009336,-0.962055 4.95878,-13.743435 13.21907,-21.616772z"/>
   <path opacity="0.2" id="svg_18" fill="#231F20" d="m50.895416,37.928108c-12.714397,12.118797 -32.206013,8.802811 -32.206013,8.802811s-3.478955,-18.576988 9.235445,-30.697336s31.97809,-13.408265 34.507956,-10.996919c2.453342,2.338418 1.178635,20.772644 -11.537388,32.891445z"/>
   <path id="svg_20" fill="#E0E0D1" d="m50.895416,34.824699c-12.714397,12.118801 -32.206013,8.802814 -32.206013,8.802814s-3.478955,-18.576988 9.235445,-30.697336s31.97809,-13.408266 34.507956,-10.99692c2.453342,2.338416 1.178635,20.772645 -11.537388,32.891442z"/>
   <path opacity="0.2" id="svg_22" fill="#231F20" d="m14.085526,53.314793c-1.271441,1.211884 -2.181474,2.308929 -3.452912,1.097057l0,0c-1.27144,-1.211887 -0.120472,-2.079288 1.150968,-3.291164l16.115215,-19.750072c1.271439,-1.211882 6.786987,-2.308933 8.058422,-1.097055l0,0c1.271442,1.21188 0.120476,6.469046 -1.15097,7.680933l-20.720722,15.360302z"/>
   <path id="svg_24" fill="#C75C5C" d="m14.085526,50.211388c-1.271441,1.211884 -2.181474,2.308929 -3.452912,1.097054l0,0c-1.27144,-1.211884 -0.120472,-2.079277 1.150968,-3.291161l16.115215,-19.750078c1.271439,-1.211878 6.786987,-2.308929 8.058422,-1.097048l0,0c1.271442,1.211878 0.120476,6.469048 -1.15097,7.680931l-20.720722,15.360302z"/>
   <ellipse opacity="0.2" id="svg_26" transform="matrix(1.15113, -1.09721, 1.15113, 1.09721, -33.3278, 36.5635)" ry="4" rx="4" fill="#231F20" cy="27.334803" cx="40.131018"/>
   <ellipse opacity="0.2" id="svg_28" transform="matrix(1.15113, -1.09721, 1.15113, 1.09721, -24.1186, 40.1993)" ry="2" rx="2" fill="#231F20" cy="21.677803" cx="45.788018"/>
   <ellipse id="svg_30" transform="matrix(1.15113, -1.09721, 1.15113, 1.09721, -31.0256, 35.6545)" ry="4" rx="4" fill="#4F5D73" cy="25.334803" cx="40.131018"/>
   <ellipse id="svg_32" transform="matrix(1.15113, -1.09721, 1.15113, 1.09721, -21.8163, 39.2903)" ry="2" rx="2" fill="#4F5D73" cy="19.677803" cx="45.788018"/>
  </g>
 </g>
</svg>