<svg width="24" height="24" xmlns="http://www.w3.org/2000/svg">

 <g>
  <title>background</title>
  <rect fill="none" id="canvas_background" height="402" width="582" y="-1" x="-1"/>
 </g>
 <g>
  <title>Layer 1</title>
  <path id="svg_2" fill="#95a5a6" d="m5,2c-1.1046,0 -2,0.900024 -2,2l0,8l0,4l0,6c0,1.099976 0.8954,2 2,2l14,0c1.105,0 2,-0.900024 2,-2l0,-6l0,-4l0,-4l-6,-6l-10,0z"/>
  <path id="svg_3" fill="#ffffff" d="m5,1c-1.1046,0 -2,0.900024 -2,2l0,8l0,4l0,6c0,1.099976 0.8954,2 2,2l14,0c1.105,0 2,-0.900024 2,-2l0,-6l0,-4l0,-4l-6,-6l-10,0z"/>
  <path id="svg_4" fill="#000000" d="m21,7l-6,-6l0,4c0,1.099976 0.895,2 2,2l4,0z"/>
  <path id="svg_5" fill="#000000" d="m6,8l0,1l12,0l0,-1l-12,0zm0,3l0,1l12,0l0,-1l-12,0zm0,3l0,1l12,0l0,-1l-12,0zm0,3l0,1l12,0l0,-1l-12,0z"/>
 </g>
</svg>